[
  {
    "team": "core",
    "package": "@atlaskit/global-navigation",
    "version": "7.3.1",
    "dependent": true,
    "id": "src.main",
    "name": "main",
    "stats": {
      "size": 20289,
      "gzipSize": 6971
    }
  },
  {
    "team": "core",
    "package": "@atlaskit/global-navigation",
    "version": "7.3.1",
    "dependent": true,
    "id": "node_modules.main",
    "name": "node_modules [main]",
    "stats": {
      "size": 209422,
      "gzipSize": 63313
    }
  },
  {
    "team": "core",
    "package": "@atlaskit/global-navigation",
    "version": "7.3.1",
    "dependent": true,
    "id": "atlaskit.core.main",
    "name": "main",
    "stats": {
      "size": 244900,
      "gzipSize": 56670
    }
  },
  {
    "team": "core",
    "package": "@atlaskit/global-navigation",
    "version": "7.3.1",
    "dependent": true,
    "id": "atlaskit.elements.main",
    "name": "main",
    "stats": {
      "size": 2920,
      "gzipSize": 1238
    }
  },
  {
    "team": "core",
    "package": "@atlaskit/global-navigation",
    "version": "7.3.1",
    "dependent": true,
    "id": "atlaskit.home.main",
    "name": "main",
    "stats": {
      "size": 3990,
      "gzipSize": 1473
    }
  },
  {
    "team": "core",
    "package": "@atlaskit/global-navigation",
    "version": "7.3.1",
    "dependent": true,
    "id": "atlaskit.navigation.main",
    "name": "main",
    "stats": {
      "size": 61026,
      "gzipSize": 16040
    }
  },
  {
    "team": "core",
    "package": "@atlaskit/global-navigation",
    "version": "7.3.1",
    "dependent": true,
    "id": "combined.main",
    "name": "main",
    "stats": {
      "size": 533187,
      "gzipSize": 142777
    }
  }
]