[
  {
    "team": "navigation",
    "package": "@atlaskit/atlassian-switcher",
    "version": "3.2.0",
    "dependent": true,
    "id": "src.main",
    "name": "main",
    "stats": {
      "size": 60470,
      "gzipSize": 16253
    }
  },
  {
    "team": "navigation",
    "package": "@atlaskit/atlassian-switcher",
    "version": "3.2.0",
    "dependent": true,
    "id": "node_modules.main",
    "name": "node_modules [main]",
    "stats": {
      "size": 94828,
      "gzipSize": 28025
    }
  },
  {
    "team": "navigation",
    "package": "@atlaskit/atlassian-switcher",
    "version": "3.2.0",
    "dependent": true,
    "id": "atlaskit.core.main",
    "name": "main",
    "stats": {
      "size": 79914,
      "gzipSize": 21192
    }
  },
  {
    "team": "navigation",
    "package": "@atlaskit/atlassian-switcher",
    "version": "3.2.0",
    "dependent": true,
    "id": "atlaskit.elements.main",
    "name": "main",
    "stats": {
      "size": 900,
      "gzipSize": 450
    }
  },
  {
    "team": "navigation",
    "package": "@atlaskit/atlassian-switcher",
    "version": "3.2.0",
    "dependent": true,
    "id": "combined.main",
    "name": "main",
    "stats": {
      "size": 232941,
      "gzipSize": 64384
    }
  }
]