[
  {
    "team": "core",
    "package": "@atlaskit/analytics-next",
    "version": "5.0.1",
    "dependent": true,
    "id": "src.main",
    "name": "main",
    "stats": {
      "size": 7468,
      "gzipSize": 2361
    }
  },
  {
    "team": "core",
    "package": "@atlaskit/analytics-next",
    "version": "5.0.1",
    "dependent": true,
    "id": "node_modules.main",
    "name": "node_modules [main]",
    "stats": {
      "size": 3814,
      "gzipSize": 1256
    }
  },
  {
    "team": "core",
    "package": "@atlaskit/analytics-next",
    "version": "5.0.1",
    "dependent": true,
    "id": "combined.main",
    "name": "main",
    "stats": {
      "size": 10668,
      "gzipSize": 3080
    }
  }
]