[
  {
    "team": "bitbucket",
    "package": "@atlaskit/mobile-header",
    "version": "3.1.1",
    "dependent": true,
    "id": "src.main",
    "name": "main",
    "stats": {
      "size": 5284,
      "gzipSize": 2148
    }
  },
  {
    "team": "bitbucket",
    "package": "@atlaskit/mobile-header",
    "version": "3.1.1",
    "dependent": true,
    "id": "node_modules.main",
    "name": "node_modules [main]",
    "stats": {
      "size": 36154,
      "gzipSize": 11375
    }
  },
  {
    "team": "bitbucket",
    "package": "@atlaskit/mobile-header",
    "version": "3.1.1",
    "dependent": true,
    "id": "atlaskit.core.main",
    "name": "main",
    "stats": {
      "size": 47305,
      "gzipSize": 12468
    }
  },
  {
    "team": "bitbucket",
    "package": "@atlaskit/mobile-header",
    "version": "3.1.1",
    "dependent": true,
    "id": "combined.main",
    "name": "main",
    "stats": {
      "size": 87768,
      "gzipSize": 24651
    }
  }
]