[
  {
    "team": "editor",
    "package": "@atlaskit/editor-confluence-transformer",
    "version": "7.2.2",
    "dependent": true,
    "id": "src.main",
    "name": "main",
    "stats": {
      "size": 26585,
      "gzipSize": 8396
    }
  },
  {
    "team": "editor",
    "package": "@atlaskit/editor-confluence-transformer",
    "version": "7.2.2",
    "dependent": true,
    "id": "node_modules.main",
    "name": "node_modules [main]",
    "stats": {
      "size": 57893,
      "gzipSize": 17685
    }
  },
  {
    "team": "editor",
    "package": "@atlaskit/editor-confluence-transformer",
    "version": "7.2.2",
    "dependent": true,
    "id": "atlaskit.core.main",
    "name": "main",
    "stats": {
      "size": 13245,
      "gzipSize": 3516
    }
  },
  {
    "team": "editor",
    "package": "@atlaskit/editor-confluence-transformer",
    "version": "7.2.2",
    "dependent": true,
    "id": "atlaskit.editor.main",
    "name": "main",
    "stats": {
      "size": 5039,
      "gzipSize": 2044
    }
  },
  {
    "team": "editor",
    "package": "@atlaskit/editor-confluence-transformer",
    "version": "7.2.2",
    "dependent": true,
    "id": "combined.main",
    "name": "main",
    "stats": {
      "size": 100379,
      "gzipSize": 30355
    }
  }
]