[
  {
    "team": "core",
    "package": "@atlaskit/navigation-next",
    "version": "6.1.0",
    "dependent": true,
    "id": "src.main",
    "name": "main",
    "stats": {
      "size": 81928,
      "gzipSize": 19430
    }
  },
  {
    "team": "core",
    "package": "@atlaskit/navigation-next",
    "version": "6.1.0",
    "dependent": true,
    "id": "node_modules.main",
    "name": "node_modules [main]",
    "stats": {
      "size": 386796,
      "gzipSize": 108087
    }
  },
  {
    "team": "core",
    "package": "@atlaskit/navigation-next",
    "version": "6.1.0",
    "dependent": true,
    "id": "atlaskit.core.main",
    "name": "main",
    "stats": {
      "size": 72498,
      "gzipSize": 19243
    }
  },
  {
    "team": "core",
    "package": "@atlaskit/navigation-next",
    "version": "6.1.0",
    "dependent": true,
    "id": "atlaskit.elements.main",
    "name": "main",
    "stats": {
      "size": 777,
      "gzipSize": 415
    }
  },
  {
    "team": "core",
    "package": "@atlaskit/navigation-next",
    "version": "6.1.0",
    "dependent": true,
    "id": "combined.main",
    "name": "main",
    "stats": {
      "size": 536292,
      "gzipSize": 145526
    }
  }
]