[
  {
    "team": "core",
    "package": "@atlaskit/tabs",
    "version": "10.0.3",
    "dependent": true,
    "id": "src.main",
    "name": "main",
    "stats": {
      "size": 7746,
      "gzipSize": 2567
    }
  },
  {
    "team": "core",
    "package": "@atlaskit/tabs",
    "version": "10.0.3",
    "dependent": true,
    "id": "node_modules.main",
    "name": "node_modules [main]",
    "stats": {
      "size": 4436,
      "gzipSize": 1509
    }
  },
  {
    "team": "core",
    "package": "@atlaskit/tabs",
    "version": "10.0.3",
    "dependent": true,
    "id": "atlaskit.core.main",
    "name": "main",
    "stats": {
      "size": 18255,
      "gzipSize": 4722
    }
  },
  {
    "team": "core",
    "package": "@atlaskit/tabs",
    "version": "10.0.3",
    "dependent": true,
    "id": "combined.main",
    "name": "main",
    "stats": {
      "size": 28002,
      "gzipSize": 7773
    }
  }
]