[
  {
    "team": "core",
    "package": "@atlaskit/multi-select",
    "version": "13.0.5",
    "dependent": true,
    "id": "src.main",
    "name": "main",
    "stats": {
      "size": 18915,
      "gzipSize": 5500
    }
  },
  {
    "team": "core",
    "package": "@atlaskit/multi-select",
    "version": "13.0.5",
    "dependent": true,
    "id": "node_modules.main",
    "name": "node_modules [main]",
    "stats": {
      "size": 140171,
      "gzipSize": 37749
    }
  },
  {
    "team": "core",
    "package": "@atlaskit/multi-select",
    "version": "13.0.5",
    "dependent": true,
    "id": "atlaskit.core.main",
    "name": "main",
    "stats": {
      "size": 86168,
      "gzipSize": 21443
    }
  },
  {
    "team": "core",
    "package": "@atlaskit/multi-select",
    "version": "13.0.5",
    "dependent": true,
    "id": "combined.main",
    "name": "main",
    "stats": {
      "size": 242849,
      "gzipSize": 61636
    }
  }
]