[
  {
    "team": "elements",
    "package": "@atlaskit/emoji",
    "version": "62.2.0",
    "dependent": true,
    "id": "src.main",
    "name": "main",
    "stats": {
      "size": 71838,
      "gzipSize": 21576
    }
  },
  {
    "team": "elements",
    "package": "@atlaskit/emoji",
    "version": "62.2.0",
    "dependent": true,
    "id": "src.async",
    "name": "async",
    "stats": {
      "size": 44198,
      "gzipSize": 11937
    }
  },
  {
    "team": "elements",
    "package": "@atlaskit/emoji",
    "version": "62.2.0",
    "dependent": true,
    "id": "node_modules.main",
    "name": "node_modules [main]",
    "stats": {
      "size": 363183,
      "gzipSize": 93299
    }
  },
  {
    "team": "elements",
    "package": "@atlaskit/emoji",
    "version": "62.2.0",
    "dependent": true,
    "id": "node_modules.async",
    "name": "node_modules [async]",
    "stats": {
      "size": 59524,
      "gzipSize": 13495
    }
  },
  {
    "team": "elements",
    "package": "@atlaskit/emoji",
    "version": "62.2.0",
    "dependent": true,
    "id": "atlaskit.core.main",
    "name": "main",
    "stats": {
      "size": 61224,
      "gzipSize": 15833
    }
  },
  {
    "team": "elements",
    "package": "@atlaskit/emoji",
    "version": "62.2.0",
    "dependent": true,
    "id": "atlaskit.core.async",
    "name": "async",
    "stats": {
      "size": 13273,
      "gzipSize": 2699
    }
  },
  {
    "team": "elements",
    "package": "@atlaskit/emoji",
    "version": "62.2.0",
    "dependent": true,
    "id": "atlaskit.elements.main",
    "name": "main",
    "stats": {
      "size": 2096,
      "gzipSize": 933
    }
  },
  {
    "team": "elements",
    "package": "@atlaskit/emoji",
    "version": "62.2.0",
    "dependent": true,
    "id": "atlaskit.media.main",
    "name": "main",
    "stats": {
      "size": 21729,
      "gzipSize": 5980
    }
  },
  {
    "team": "elements",
    "package": "@atlaskit/emoji",
    "version": "62.2.0",
    "dependent": true,
    "id": "atlaskit.media.async",
    "name": "async",
    "stats": {
      "size": 1702,
      "gzipSize": 737
    }
  },
  {
    "team": "elements",
    "package": "@atlaskit/emoji",
    "version": "62.2.0",
    "dependent": true,
    "id": "combined.main",
    "name": "main",
    "stats": {
      "size": 518816,
      "gzipSize": 138163
    }
  },
  {
    "team": "elements",
    "package": "@atlaskit/emoji",
    "version": "62.2.0",
    "dependent": true,
    "id": "combined.async",
    "name": "async",
    "stats": {
      "size": 118517,
      "gzipSize": 29202
    }
  }
]