[
  {
    "team": "core",
    "package": "@atlaskit/select",
    "version": "9.1.6",
    "dependent": true,
    "id": "src.main",
    "name": "main",
    "stats": {
      "size": 31199,
      "gzipSize": 9682
    }
  },
  {
    "team": "core",
    "package": "@atlaskit/select",
    "version": "9.1.6",
    "dependent": true,
    "id": "node_modules.main",
    "name": "node_modules [main]",
    "stats": {
      "size": 185408,
      "gzipSize": 55723
    }
  },
  {
    "team": "core",
    "package": "@atlaskit/select",
    "version": "9.1.6",
    "dependent": true,
    "id": "atlaskit.core.main",
    "name": "main",
    "stats": {
      "size": 39212,
      "gzipSize": 9872
    }
  },
  {
    "team": "core",
    "package": "@atlaskit/select",
    "version": "9.1.6",
    "dependent": true,
    "id": "combined.main",
    "name": "main",
    "stats": {
      "size": 253854,
      "gzipSize": 73571
    }
  }
]