[
  {
    "team": "core",
    "package": "@atlaskit/textfield",
    "version": "2.0.1",
    "dependent": true,
    "id": "src.main",
    "name": "main",
    "stats": {
      "size": 8673,
      "gzipSize": 3137
    }
  },
  {
    "team": "core",
    "package": "@atlaskit/textfield",
    "version": "2.0.1",
    "dependent": true,
    "id": "node_modules.main",
    "name": "node_modules [main]",
    "stats": {
      "size": 20068,
      "gzipSize": 7324
    }
  },
  {
    "team": "core",
    "package": "@atlaskit/textfield",
    "version": "2.0.1",
    "dependent": true,
    "id": "atlaskit.core.main",
    "name": "main",
    "stats": {
      "size": 18153,
      "gzipSize": 4801
    }
  },
  {
    "team": "core",
    "package": "@atlaskit/textfield",
    "version": "2.0.1",
    "dependent": true,
    "id": "combined.main",
    "name": "main",
    "stats": {
      "size": 43777,
      "gzipSize": 13723
    }
  }
]